[


    {
        "name":"Crave",
        "year":2012,
        "url":"https://direct.rhapsody.com/imageserver/images/Alb.120291674/500x500.jpg"

    },

    {
        "name":"Run Wild. Live Free. Love Strong.",
        "year":2014,
        "url":"https://i.pinimg.com/originals/b8/f8/d3/b8f8d3f46e84c06717c573ccecd77fe7.jpg"

    }
]